# Blender v2.79 (sub 0) OBJ File: 'LevelOne.blend'
# www.blender.org
mtllib level1.mtl
o Platform
v 14.910616 0.048618 -11.017688
v 14.910616 0.048618 -6.159092
v 10.052019 0.048618 -11.017688
v 10.052019 0.048618 -6.159092
v 10.334204 0.048618 -11.017688
v 13.313503 0.048618 -11.017688
v 14.910616 -0.077382 -11.017688
v 14.910616 -0.077382 -6.159092
v 10.052019 -0.077382 -11.017688
v 10.052019 -0.077382 -6.159092
v 10.334204 -0.077382 -11.017688
v 13.313503 -0.077382 -11.017688
vt -2.5999 3.7573
vt -3.0073 3.7573
vt -3.0073 -3.2573
vt -3.0073 -3.2573
vt -2.5999 3.7573
vt 1.7015 3.5871
vt 4.0073 -3.2573
vt 4.0073 3.7573
vt 4.0073 3.7573
vt 4.0073 -3.2573
vt 1.7015 3.5871
vt -3.0073 3.7573
vn 0.0000 1.0000 0.0000
vn 0.0000 -1.0000 0.0000
vn 1.0000 0.0000 0.0000
vn 0.0000 0.0000 1.0000
vn -1.0000 0.0000 0.0000
vn 0.0000 0.0000 -1.0000
usemtl Material
s off
f 5/1/1 3/2/1 4/3/1
f 10/4/2 11/5/2 12/6/2
f 2/7/3 7/8/3 1/9/3
f 4/3/4 8/10/4 2/7/4
f 3/2/5 10/4/5 4/3/5
f 6/11/6 11/5/6 5/1/6
f 5/1/6 9/12/6 3/2/6
f 1/9/6 12/6/6 6/11/6
f 4/3/1 2/7/1 6/11/1
f 2/7/1 1/9/1 6/11/1
f 6/11/1 5/1/1 4/3/1
f 7/8/2 8/10/2 12/6/2
f 8/10/2 10/4/2 12/6/2
f 10/4/2 9/12/2 11/5/2
f 2/7/3 8/10/3 7/8/3
f 4/3/4 10/4/4 8/10/4
f 3/2/5 9/12/5 10/4/5
f 6/11/6 12/6/6 11/5/6
f 5/1/6 11/5/6 9/12/6
f 1/9/6 7/8/6 12/6/6
o Cube.001
v 12.621562 0.029259 -4.156958
v 12.621562 1.917449 -4.156958
v 10.621562 0.029259 -4.156958
v 10.621562 1.917449 -4.156958
v 12.621562 0.029259 -10.165512
v 12.621562 1.917449 -10.165512
v 10.621562 0.029259 -10.165512
v 10.621562 1.917449 -10.165512
vt 0.0000 0.0000
vt 0.0000 0.0000
vt 0.0000 0.0000
vt 0.0000 0.0000
vt 0.0000 0.0000
vt 0.0000 0.0000
vt 0.0000 0.0000
vt 0.0000 0.0000
vn 0.0000 0.0000 1.0000
vn -1.0000 0.0000 0.0000
vn 0.0000 0.0000 -1.0000
vn 1.0000 0.0000 0.0000
vn 0.0000 -1.0000 0.0000
vn 0.0000 1.0000 0.0000
usemtl Material_NONE
s off
f 14/13/7 15/14/7 13/15/7
f 16/16/8 19/17/8 15/14/8
f 20/18/9 17/19/9 19/17/9
f 18/20/10 13/15/10 17/19/10
f 19/17/11 13/15/11 15/14/11
f 16/16/12 18/20/12 20/18/12
f 14/13/7 16/16/7 15/14/7
f 16/16/8 20/18/8 19/17/8
f 20/18/9 18/20/9 17/19/9
f 18/20/10 14/13/10 13/15/10
f 19/17/11 17/19/11 13/15/11
f 16/16/12 14/13/12 18/20/12
o Cube
v 133.135040 -63.763363 -110.176880
v 103.342041 -63.763363 -110.176880
v 44.150333 -13.333655 -44.150333
v 44.150333 -13.333655 44.150333
v -44.150352 -13.333655 44.150322
v -44.150322 -13.333655 -44.150352
v 44.150360 28.137936 -44.150314
v 44.150314 28.137936 44.150360
v -44.150352 28.137936 44.150322
v -44.150333 28.137936 -44.150333
v 188.569000 20.061308 -44.150333
v 188.569000 20.061308 44.150333
v 100.268311 -13.333655 44.150322
v 100.268333 -13.333655 -44.150352
v 188.569031 28.137936 -44.150314
v 188.568970 28.137936 44.150360
v 100.268311 28.137936 44.150322
v 100.268326 28.137936 -44.150333
v 159.135437 3.643828 -44.150337
v 129.701874 -13.333655 -44.150345
v 159.135422 3.643828 44.150330
v 129.701859 -13.333655 44.150322
v 159.135452 28.137936 -44.150318
v 129.701889 28.137936 -44.150322
v 159.135422 28.137936 44.150349
v 129.701859 28.137936 44.150333
v 159.135437 -30.119707 -44.150337
v 159.135422 -30.119707 44.150330
v 100.268311 5.175608 9.406482
v 44.150345 5.175608 9.406482
v 44.150333 -13.333655 9.406481
v 44.150333 -13.333655 -10.593518
v 100.268326 -13.333655 -10.593517
v 100.268318 5.175608 -10.593519
v 44.150349 5.175608 -10.593519
v 100.268326 -13.333655 9.406483
v 149.106155 -79.783669 -110.176880
v 149.106155 28.341953 -110.176880
v 149.106155 -79.783669 -61.590919
v 149.106155 28.341953 -61.590919
v 100.520187 -79.783669 -110.176880
v 100.520187 28.341953 -110.176880
v 100.520187 -79.783669 -61.590919
v 100.520187 28.341953 -61.590919
v 126.215630 -13.519979 -61.590919
v 106.215630 -13.519979 -61.590919
v 126.215630 5.175608 -61.590919
v 126.215622 -13.519979 -44.150345
v 126.215622 5.175608 -44.150345
v 106.215622 -13.519979 -44.150345
v 106.215630 5.175608 -61.590919
v 106.215622 5.175608 -44.150345
v 103.342041 -80.264191 -140.061295
v 103.342041 -79.783669 -110.176880
v 133.135040 -79.783669 -110.176880
v 133.135040 -80.264191 -140.061295
v 149.106155 -63.234516 -110.176880
v 149.106155 -63.234524 -61.590919
v 100.520187 -63.234524 -61.590919
v 100.520187 -63.234524 -110.176880
v 122.092094 -5.895010 -110.176880
v 114.385002 -5.895010 -110.176880
v 122.092094 1.812076 -110.176880
v 114.385002 1.812076 -110.176880
v 114.385002 -10.676101 -118.081528
v 114.385002 -5.842828 -124.084763
v 122.092094 -10.676101 -118.081528
v 122.092094 -5.842828 -124.084763
v 106.042030 -51.068523 -130.774796
v 106.042030 -50.735085 -123.074921
v 113.749123 -50.735085 -123.074921
v 113.749123 -51.068523 -130.774796
v 103.342041 -64.020714 -140.444763
v 133.135040 -64.020714 -140.444763
v 103.342041 -80.264191 -140.061295
v 133.135040 -80.264191 -140.061295
v 122.092094 -13.402867 -125.422760
v 130.845825 -20.669876 -126.760773
v 130.845825 -32.938610 -128.098770
v 113.749123 -45.246975 -129.436783
v 106.042030 -42.023384 -129.436783
v 123.138741 -29.715019 -128.098785
v 123.138741 -22.791819 -126.760780
v 114.385002 -19.081913 -125.422760
v 106.042030 -42.723286 -122.076248
v 123.138741 -31.448261 -121.077568
v 123.138741 -25.558405 -120.078888
v 114.385002 -19.081913 -119.080208
v 122.092094 -13.402867 -119.080208
v 130.845825 -23.436466 -120.078888
v 130.845825 -34.671856 -121.077568
v 113.749123 -45.946877 -122.076248
vt 1.0000 0.0000
vt 0.0000 1.0000
vt 0.0000 0.0000
vt 0.0000 0.0000
vt 1.0000 1.0000
vt 0.0000 1.0000
vt 1.0000 0.0000
vt 0.0000 1.0000
vt 0.0000 0.0000
vt 1.0000 0.0000
vt 0.0000 1.0000
vt 0.0000 0.0000
vt 1.0000 0.0000
vt 0.0000 1.0000
vt 0.0000 0.0000
vt 1.0000 0.0000
vt 0.0000 1.0000
vt 0.0000 0.0000
vt 1.0000 0.0000
vt 0.0000 1.0000
vt 0.0000 0.0000
vt 1.0000 0.0000
vt 0.0000 1.0000
vt 0.0000 0.0000
vt 0.0000 0.0000
vt 1.0000 1.0000
vt 0.0000 1.0000
vt 0.0000 0.0000
vt 1.0000 1.0000
vt 0.0000 1.0000
vt 1.0000 0.0000
vt 0.0000 1.0000
vt 0.0000 0.0000
vt 0.0000 0.0000
vt 1.0000 1.0000
vt 0.0000 1.0000
vt 1.0000 0.0000
vt 0.0000 1.0000
vt 0.0000 0.0000
vt 0.0000 0.0000
vt 1.0000 1.0000
vt 0.0000 1.0000
vt 0.0000 0.0000
vt 1.0000 1.0000
vt 0.0000 1.0000
vt 1.0000 0.0000
vt 0.0000 1.0000
vt 0.0000 0.0000
vt 1.0000 0.0000
vt 0.0000 1.0000
vt 0.0000 0.0000
vt 1.0000 1.0000
vt 0.0000 1.0000
vt 0.0000 0.0000
vt 1.0000 1.0000
vt 0.0000 1.0000
vt 1.0000 0.0000
vt 0.0000 1.0000
vt 0.0000 0.0000
vt 1.0000 0.0000
vt 1.0000 0.0000
vt 0.0000 1.0000
vt 0.0000 0.0000
vt 1.0000 0.0000
vt 0.0000 1.0000
vt 0.0000 0.0000
vt 1.0000 0.0000
vt 0.0000 1.0000
vt 0.0000 0.0000
vt 1.0000 1.0000
vt 1.0000 0.0000
vt 0.0000 1.0000
vt 0.0000 0.0000
vt 0.0000 0.0000
vt 1.0000 1.0000
vt 0.0000 1.0000
vt 0.0000 0.0000
vt 1.0000 1.0000
vt 0.0000 1.0000
vt 0.0000 0.0000
vt 1.0000 1.0000
vt 1.0000 0.0000
vt 0.0000 1.0000
vt 0.0000 0.0000
vt 1.0000 0.0000
vt 0.0000 1.0000
vt 0.0000 0.0000
vt 0.0000 0.0000
vt 1.0000 1.0000
vt 0.0000 1.0000
vt 1.0000 1.0000
vt 1.0000 0.0000
vt 1.0000 1.0000
vt 1.0000 1.0000
vt 1.0000 1.0000
vt 1.0000 1.0000
vt 1.0000 1.0000
vt 1.0000 1.0000
vt 1.0000 0.0000
vt 1.0000 0.0000
vt 1.0000 1.0000
vt 1.0000 0.0000
vt 1.0000 1.0000
vt 1.0000 0.0000
vt 1.0000 0.0000
vt 1.0000 1.0000
vt 1.0000 1.0000
vt 1.0000 0.0000
vt 1.0000 0.0000
vt 1.0000 1.0000
vt 1.0000 1.0000
vt 1.0000 1.0000
vt 1.0000 1.0000
vt 1.0000 1.0000
vt 1.0000 0.0000
vt 1.0000 1.0000
vt 1.0000 0.0000
vt 1.0000 0.0000
vt 1.0000 0.0000
vt 1.0000 1.0000
vt 1.0000 1.0000
vt 1.0000 0.0000
vt -10.3433 0.0000
vt -7.2815 1.0118
vt -15.0630 1.0118
vt 0.5000 -0.8155
vt -7.2815 -0.8155
vt 8.2815 1.0118
vt 0.5000 1.0118
vt 16.0630 -0.8155
vt 16.0630 1.0118
vt -10.8856 1.6163
vt -19.4247 2.0068
vt -19.4247 1.6163
vt -2.3464 0.0016
vt -5.1928 2.0068
vt -5.1928 0.0016
vt 1.0135 0.8966
vt 2.9476 0.8966
vt 6.1928 2.0069
vt 6.7679 0.8966
vt 8.7020 0.8966
vt 9.0392 2.0069
vt 11.8855 2.0069
vt 14.7319 1.6163
vt 14.7319 2.0069
vt 11.8855 0.8225
vt -8.0392 2.0068
vt -10.8856 2.0068
vt -8.0392 0.8225
vt -8.0392 -0.8101
vt 20.4247 -0.8100
vt 20.4247 0.8225
vt 9.0392 0.0016
vt 11.8855 -0.8101
vt 3.4804 0.0123
vt -2.4804 0.8930
vt -2.4804 0.0123
vt -2.4804 0.8924
vt 3.4804 0.0044
vt 3.4804 0.8924
vt -2.9280 -1.2079
vt -6.3559 2.0227
vt -6.3560 -1.2079
vt 0.5000 -1.2079
vt 0.0982 0.5394
vt -1.3129 0.5394
vt 3.9280 -1.2079
vt 0.5000 2.0227
vt 5.4500 0.8149
vt 4.9062 0.8149
vt -2.9279 2.0227
vt -1.3129 1.2055
vt 6.2291 -1.2266
vt 7.3560 -1.2079
vt 3.9280 -1.7917
vt 0.5000 -1.7917
vt -2.9280 -1.7917
vt -6.3560 -1.7917
vt 1.2533 -0.0052
vt -0.3207 0.8935
vt -0.3207 -0.0052
vt -0.3207 1.8990
vt 1.2533 1.0003
vt 1.2533 1.8990
vt 5.4500 1.0868
vt 7.3560 2.0227
vt 3.9280 2.0227
vt -15.0630 -0.8155
vt -12.1058 0.0000
vt -12.1058 -0.8155
vt -10.3433 -0.8155
vt 8.2815 -0.8155
vt -2.3464 2.0068
vt 1.0135 0.0016
vt 2.9476 0.0016
vt 6.1928 0.0016
vt 6.7679 -0.0074
vt 8.7020 -0.0074
vt 3.4804 0.8930
vt -2.4804 0.0044
vt 0.0982 1.2055
vt 4.1271 -1.2266
vt 4.1271 -1.7917
vt 6.2291 -1.7917
vt 7.3560 -1.7917
vt 1.2533 0.8935
vt -0.3207 1.0003
vt 4.9062 1.0868
vt -3.8665 -0.2085
vt -3.8665 2.7967
vt -17.1342 7.8388
vt 4.5656 -0.2085
vt 4.5656 -5.4289
vt 8.9881 -5.4289
vt 17.8333 7.8388
vt 13.4107 -5.4289
vt 17.8333 -5.4289
vt 2.4017 6.8999
vt -2.0316 -6.3999
vt 2.4017 -6.3999
vt -2.5999 3.7573
vt -3.0073 3.7573
vt -3.0073 -3.2573
vt -1.4913 2.0782
vt 1.3574 -0.4059
vt 1.3574 2.0782
vt -3.8665 7.8388
vt -17.1342 -5.4289
vt -3.8665 -5.4289
vt 8.9881 7.8388
vt 8.4643 7.4510
vt 4.5656 2.7967
vt 5.4592 7.8388
vt 4.5656 7.8388
vt 13.4107 7.8388
vt -2.0316 6.8999
vt 4.0073 -3.2573
vt 1.7015 3.5871
vt 4.0073 3.7573
vt -1.4913 -0.4059
vt 0.0000 0.0000
vt 0.0000 0.0000
vt 0.0000 0.0000
vt 0.0000 0.0000
vt 0.0000 0.0000
vt 0.0000 0.0000
vt 0.0000 0.0000
vt 0.0000 0.0000
vt 0.0000 0.0000
vt 0.0000 0.0000
vt 5.7992 -0.1091
vt -10.3433 0.0000
vt -12.1058 0.0000
vt 0.0000 0.0000
vt 0.0000 0.0000
vt 0.0000 0.0000
vt 0.0001 0.6731
vt 0.6038 0.3269
vt 0.6038 0.6731
vt 0.0000 0.0000
vt 0.0000 0.0000
vt 3.8632 -0.1091
vt 0.0000 0.0000
vt 0.0001 0.3269
vn 0.0000 0.9999 -0.0161
vn 1.0000 0.0000 0.0000
vn -0.0611 -0.1461 0.9874
vn -1.0000 -0.0000 0.0000
vn 0.0000 0.8557 -0.5175
vn 0.0000 -0.8761 0.4822
vn 0.0000 -0.5982 0.8013
vn 0.0517 0.1235 -0.9910
vn 0.9775 -0.2106 0.0091
vn -0.5426 -0.8392 0.0363
vn 0.0000 -0.7035 -0.7107
vn 0.0000 0.0236 0.9997
vn 0.0000 0.3439 -0.9390
vn -0.0567 0.0769 -0.9954
vn -0.0460 0.1670 -0.9849
vn 0.0226 0.0541 -0.9983
vn -0.6387 -0.7694 0.0000
vn -0.5831 0.7887 0.1947
vn 0.5948 0.8039 0.0000
vn 0.5831 -0.7887 -0.1947
vn 0.0000 -0.1743 0.9847
vn 0.0958 -0.1300 0.9869
vn 0.0522 -0.1895 0.9805
vn -0.0287 -0.0686 0.9972
vn 0.0000 -0.2240 0.9746
vn 0.0000 0.2042 -0.9789
vn 0.9795 -0.2013 0.0017
vn -0.5610 -0.8278 0.0070
vn 0.0000 -0.7035 -0.7106
vn -0.0866 0.1175 -0.9893
vn -0.0220 0.0800 -0.9966
vn 0.0370 0.0885 -0.9954
vn -0.7407 -0.6207 -0.2570
vn -0.5520 0.8301 0.0789
vn 0.4104 0.8425 0.3488
vn 0.5520 -0.8301 -0.0789
vn 0.0739 -0.1003 0.9922
vn 0.0377 -0.1369 0.9899
vn -0.0453 -0.1083 0.9931
vn 0.0000 0.0000 -1.0000
vn -0.0000 -0.0000 1.0000
vn 0.0000 1.0000 0.0000
vn -0.4871 0.8733 0.0000
vn 0.4954 0.8687 0.0000
vn -0.0533 0.9975 -0.0468
vn 0.0000 1.0000 -0.0056
vn 0.0313 0.9995 -0.0000
vn 0.0000 -1.0000 0.0000
usemtl Material_vent.png
s off
f 75/21/13 73/22/13 74/23/13
f 82/24/14 86/25/14 84/26/14
f 89/27/15 100/28/15 101/29/15
f 81/30/16 88/31/16 87/32/16
f 82/33/17 87/34/17 85/35/17
f 83/36/18 86/37/18 88/38/18
f 93/39/19 92/40/19 89/41/19
f 90/42/14 101/43/14 105/44/14
f 100/45/16 91/46/16 112/47/16
f 112/48/20 90/49/20 105/50/20
f 74/51/14 93/52/14 22/53/14
f 90/54/21 93/55/21 89/56/21
f 94/57/22 91/58/22 92/59/22
f 91/60/23 22/61/23 90/62/23
f 94/63/16 75/64/16 21/65/16
f 95/66/24 94/67/24 93/68/24
f 109/69/25 85/70/25 87/32/25
f 109/71/26 107/72/26 108/73/26
f 110/74/27 106/75/27 107/76/27
f 112/77/28 106/78/28 111/79/28
f 97/80/16 87/34/16 88/38/16
f 98/81/29 109/82/29 97/83/29
f 99/84/16 110/85/16 98/86/16
f 100/87/30 111/88/30 99/89/30
f 85/35/14 104/90/14 86/37/14
f 107/91/31 104/92/31 108/93/31
f 107/94/14 102/95/14 103/96/14
f 106/97/32 101/98/32 102/99/32
f 86/100/33 97/101/33 88/31/33
f 103/102/34 97/103/34 104/104/34
f 102/105/35 98/106/35 103/107/35
f 102/108/36 100/109/36 99/110/36
f 75/21/13 76/111/13 73/22/13
f 82/24/14 85/112/14 86/25/14
f 89/27/37 92/113/37 100/28/37
f 81/30/16 83/114/16 88/31/16
f 82/33/17 81/115/17 87/34/17
f 83/36/18 84/116/18 86/37/18
f 93/39/19 94/117/19 92/40/19
f 90/42/14 89/118/14 101/43/14
f 100/45/16 92/119/16 91/46/16
f 112/48/38 91/120/38 90/49/38
f 74/51/14 95/121/14 93/52/14
f 90/54/39 22/122/39 93/55/39
f 94/57/40 21/123/40 91/58/40
f 91/60/41 21/124/41 22/61/41
f 94/63/16 96/125/16 75/64/16
f 95/66/24 96/126/24 94/67/24
f 109/69/42 108/127/42 85/70/42
f 109/71/43 110/128/43 107/72/43
f 110/74/44 111/129/44 106/75/44
f 112/77/28 105/130/28 106/78/28
f 97/80/16 109/131/16 87/34/16
f 98/81/45 110/132/45 109/82/45
f 99/84/16 111/133/16 110/85/16
f 100/87/46 112/134/46 111/88/46
f 85/35/14 108/135/14 104/90/14
f 107/91/47 103/136/47 104/92/47
f 107/94/14 106/137/14 102/95/14
f 106/97/48 105/138/48 101/98/48
f 86/100/49 104/139/49 97/101/49
f 103/102/50 98/140/50 97/103/50
f 102/105/51 99/141/51 98/106/51
f 102/108/36 101/142/36 100/109/36
usemtl Material_waw.png
f 50/143/16 28/144/16 27/145/16
f 25/146/52 28/144/52 24/147/52
f 25/146/14 30/148/14 29/149/14
f 30/148/53 23/150/53 27/151/53
f 32/152/16 35/153/16 31/154/16
f 33/155/52 46/156/52 42/157/52
f 49/158/14 54/159/14 38/160/14
f 72/161/53 69/162/53 44/163/53
f 43/164/53 31/165/53 35/166/53
f 44/163/53 39/167/53 43/164/53
f 32/152/52 45/168/52 36/169/52
f 41/170/52 46/156/52 45/168/52
f 42/157/52 41/170/52 48/171/52
f 39/167/16 48/172/16 41/173/16
f 39/167/53 40/174/53 47/175/53
f 53/176/53 55/177/53 52/178/53
f 49/179/52 51/180/52 50/181/52
f 78/182/16 58/183/16 77/184/16
f 79/185/52 66/186/52 65/187/52
f 80/188/14 64/189/14 79/185/14
f 80/188/53 81/190/53 82/191/53
f 60/192/52 67/193/52 64/189/52
f 21/194/53 77/195/53 80/188/53
f 61/196/14 79/185/14 63/197/14
f 63/197/52 78/182/52 59/198/52
f 59/198/16 77/184/16 57/199/16
f 68/200/16 67/201/16 65/202/16
f 72/203/14 66/204/14 71/205/14
f 83/206/53 58/207/53 62/208/53
f 27/145/16 23/209/16 55/210/16
f 23/209/16 52/211/16 55/210/16
f 51/212/16 24/147/16 50/143/16
f 24/147/16 28/144/16 50/143/16
f 27/145/16 55/210/16 50/143/16
f 25/146/52 29/149/52 28/144/52
f 25/146/14 26/213/14 30/148/14
f 30/148/53 26/213/53 23/150/53
f 32/152/16 36/169/16 35/153/16
f 33/155/52 37/214/52 46/156/52
f 37/214/14 33/155/14 49/158/14
f 33/155/14 56/215/14 49/158/14
f 53/216/14 34/217/14 54/159/14
f 34/217/14 38/160/14 54/159/14
f 37/214/14 49/158/14 38/160/14
f 38/160/53 34/217/53 72/161/53
f 34/217/53 70/218/53 72/161/53
f 68/219/53 40/174/53 69/162/53
f 40/174/53 44/163/53 69/162/53
f 38/160/53 72/161/53 44/163/53
f 43/164/53 39/167/53 31/165/53
f 44/163/53 40/174/53 39/167/53
f 32/152/52 41/170/52 45/168/52
f 41/170/52 42/157/52 46/156/52
f 39/167/16 47/175/16 48/172/16
f 53/176/53 54/220/53 55/177/53
f 49/179/52 56/221/52 51/180/52
f 78/182/16 60/192/16 58/183/16
f 60/192/52 78/182/52 65/187/52
f 78/182/52 79/185/52 65/187/52
f 79/185/52 64/189/52 66/186/52
f 64/189/52 71/222/52 66/186/52
f 80/188/14 62/208/14 64/189/14
f 80/188/53 77/195/53 81/190/53
f 77/195/53 58/207/53 81/190/53
f 58/207/53 83/206/53 81/190/53
f 82/191/53 62/208/53 80/188/53
f 60/192/52 65/187/52 67/193/52
f 67/193/52 71/222/52 64/189/52
f 80/188/53 61/196/53 22/223/53
f 61/196/53 74/224/53 22/223/53
f 75/225/53 57/226/53 21/194/53
f 57/226/53 77/195/53 21/194/53
f 80/188/53 22/223/53 21/194/53
f 61/196/14 80/188/14 79/185/14
f 63/197/52 79/185/52 78/182/52
f 59/198/16 78/182/16 77/184/16
f 68/200/16 69/227/16 67/201/16
f 72/203/14 70/228/14 66/204/14
f 62/208/53 82/191/53 84/229/53
f 84/229/53 83/206/53 62/208/53
usemtl Material
f 51/230/54 52/231/54 26/232/54
f 56/233/54 33/234/54 42/235/54
f 31/236/55 41/237/55 32/238/55
f 47/239/56 42/240/56 48/241/56
f 56/233/54 52/231/54 51/230/54
f 74/242/54 61/243/54 63/244/54
f 66/245/54 68/246/54 65/247/54
f 52/231/54 23/248/54 26/232/54
f 26/232/54 25/249/54 51/230/54
f 25/249/54 24/250/54 51/230/54
f 42/235/54 40/251/54 56/233/54
f 40/251/57 68/252/57 53/253/57
f 56/233/54 40/251/54 53/253/54
f 68/252/58 70/254/58 53/253/58
f 70/254/59 34/255/59 53/253/59
f 31/236/55 39/256/55 41/237/55
f 47/239/56 40/257/56 42/240/56
f 56/233/54 53/253/54 52/231/54
f 63/244/54 59/258/54 75/259/54
f 59/258/54 57/260/54 75/259/54
f 75/259/54 74/242/54 63/244/54
f 66/245/54 70/261/54 68/246/54
usemtl Material_Untitled
f 28/262/60 30/263/60 27/264/60
f 46/265/60 38/266/60 44/267/60
f 36/268/60 43/269/60 35/270/60
f 45/271/60 44/267/60 43/269/60
f 55/272/60 49/273/60 50/274/60
f 62/275/60 60/276/60 64/277/60
f 69/278/60 71/279/60 67/280/60
f 28/262/60 29/281/60 30/263/60
f 46/265/60 37/282/60 38/266/60
f 36/268/60 45/271/60 43/269/60
f 45/271/60 46/265/60 44/267/60
f 55/272/60 54/283/60 49/273/60
f 62/275/60 58/284/60 60/276/60
f 69/278/60 72/285/60 71/279/60
